《机器学习与R语言》学习笔记02：朴素贝叶斯
…
虽然是很长一串，但还是要比书中的代码少10来行的，而且连贯性和可读性也更高，最重要的是，只需要命名一个变量。

分解一下：

原始数据是这样的：

(sms <- read_csv(here('content', 'post', 'data', '02-sms_spam.csv')))

## # A tibble: 5,574 x 2
##    type  text                                                              
##    <chr> <chr>                                                             
##  1 ham   Go until jurong point, crazy.. Available only in bugis n great wo~
##  2 ham   Ok lar... Joking wif u oni...                                     
##  3 spam  Free entry in 2 a wkly comp to win FA Cup final tkts 21st May 200~
##  4 ham   U dun say so early hor... U c already then say...                 
##  5 ham   Nah I don't think he goes to usf, he lives around here though     
##  6 spam  FreeMsg Hey there darling it's been 3 week's now and no word back~
##  7 ham   Even my brother is not like to speak with me. They treat me like ~
##  8 ham   As per your request 'Melle Melle (Oru Minnaminunginte Nurungu Vet~
##  9 spam  WINNER!! As a valued network customer you have been selected to r~
## 10 spam  Had your mobile 11 months or more? U R entitled to Update to the ~
## # ... with 5,564 more rows
…
sms <- read_csv(here('content', 'post', 'data', '02-sms_spam.csv')) %>% 
  mutate(type = factor(type),
         row = row_number())

然后利用tidytext包中的unnest_token函数进行分词，利用anti_join函数去掉停用词，再利用filter和str_detect的组合去掉数字。此时的数据是这样的：

(sms <- read_csv(here('content', 'post', 'data', '02-sms_spam.csv')) %>% 
  mutate(type = factor(type),
         row = row_number()) %>% 
  unnest_tokens(word, text) %>% 
  anti_join(stop_words) %>% 
  filter(!str_detect(word, '\\d')))

## # A tibble: 34,390 x 3
##    type    row word  
##    <fct> <int> <chr> 
##  1 ham       1 jurong
##  2 ham       1 crazy 
##  3 ham       1 bugis 
##  4 ham       1 world 
##  5 ham       1 la    
##  6 ham       1 buffet
##  7 ham       1 cine  
##  8 ham       1 amore 
##  9 ham       1 wat   
## 10 ham       2 lar   
## # ... with 34,380 more rows
其中共涉及到7440个词汇。

这时遇到了困难，因为需要把数据整成稀疏矩阵，也就是要做到每个词自成一列，假如某条短信内出现了该词，则记为1，没有出现的话，则记为0。数据一共5000多行，而词汇共有7000多个，即要整理出一个5000*7000的矩阵或数据框。一开始想尝试用tidyr包来解决这个问题，结果发现生成了一个5GB的数据框，虽然也能把问题解决，但这个方法太慢了。看书里的方法，tm包中是有相关的函数来进行这一步转换的；去网上查，发现Matrix包也能解决这个问题，但它们都会破坏代码的完整性。后来想到，tidytext应该不会没有处理这种问题的函数，看了下，果然有个cast_sparse函数，可以调用Matrix包中的sparseMatrix函数。此时问题还没有完全解决，以为cast_sparse函数生成的矩阵是一个class为dgCMatrix的矩阵，没法直接转为数据框。又在网上查了下，发现可以先将其转为矩阵，然后再转为数据框。此时的部分数据是这样的：

(sms <- read_csv(here('content', 'post', 'data', '02-sms_spam.csv')) %>% 
  mutate(type = factor(type),
         row = row_number()) %>% 
  unnest_tokens(word, text) %>% 
  anti_join(stop_words) %>% 
  filter(!str_detect(word, '\\d')) %>% 
  cast_sparse(row, word) %>% 
  as.matrix() %>% 
  as_tibble())

## # A tibble: 5,454 x 7,440
##    jurong crazy bugis world    la buffet  cine amore   wat   lar joking
##     <dbl> <dbl> <dbl> <dbl> <dbl>  <dbl> <dbl> <dbl> <dbl> <dbl>  <dbl>
##  1      1     1     1     1     1      1     1     1     1     0      0
##  2      0     0     0     0     0      0     0     0     0     1      1
##  3      0     0     0     0     0      0     0     0     0     0      0
##  4      0     0     0     0     0      0     0     0     0     0      0
##  5      0     0     0     0     0      0     0     0     0     0      0
##  6      0     0     0     0     0      0     0     0     0     0      0
##  7      0     0     0     0     0      0     0     0     0     0      0
##  8      0     0     0     0     0      0     0     0     0     0      0
##  9      0     0     0     0     0      0     0     0     0     0      0
## 10      0     0     0     0     0      0     0     0     0     0      0
## # ... with 5,444 more rows, and 7,429 more variables: wif <dbl>,
## #   oni <dbl>, free <dbl>, entry <dbl>, wkly <dbl>, comp <dbl>, win <dbl>,
## #   fa <dbl>, cup <dbl>, final <dbl>, tkts <dbl>, text <dbl>,
## #   receive <dbl>, question <dbl>, std <dbl>, txt <dbl>, rate <dbl>,
## #   apply <dbl>, dun <dbl>, hor <dbl>, nah <dbl>, usf <dbl>, lives <dbl>,
## #   freemsg <dbl>, hey <dbl>, darling <dbl>, `week's` <dbl>, word <dbl>,
## #   fun <dbl>, tb <dbl>, xxx <dbl>, chgs <dbl>, send <dbl>, rcv <dbl>,
## #   brother <dbl>, speak <dbl>, treat <dbl>, aids <dbl>, patent <dbl>,
## #   request <dbl>, melle <dbl>, oru <dbl>, minnaminunginte <dbl>,
…
下一步是按着书里的标准，去掉出现频次较低的词汇，仅保留至少出现过5次的词汇。这里也遇到点小困难，本来是想用select_*系列的函数剔除低频词汇的，但没有成功，最后在网上查到了更为简单的方式。这时变量就从7440变成了1312，数据框的大小也从300多MB减少到了50多MB：

(sms <- read_csv(here('content', 'post', 'data', '02-sms_spam.csv')) %>% 
  mutate(type = factor(type),
         row = row_number()) %>% 
  unnest_tokens(word, text) %>% 
  anti_join(stop_words) %>% 
  filter(!str_detect(word, '\\d')) %>% 
  cast_sparse(row, word) %>% 
  as.matrix() %>% 
  as_tibble() %>% 
  select(which(colSums(.) > 4)))

## # A tibble: 5,454 x 1,312
##    crazy bugis world    la  cine   wat   lar joking   wif  free entry  wkly
##    <dbl> <dbl> <dbl> <dbl> <dbl> <dbl> <dbl>  <dbl> <dbl> <dbl> <dbl> <dbl>
##  1     1     1     1     1     1     1     0      0     0     0     0     0
##  2     0     0     0     0     0     0     1      1     1     0     0     0
##  3     0     0     0     0     0     0     0      0     0     1     1     1
##  4     0     0     0     0     0     0     0      0     0     0     0     0
##  5     0     0     0     0     0     0     0      0     0     0     0     0
##  6     0     0     0     0     0     0     0      0     0     0     0     0
##  7     0     0     0     0     0     0     0      0     0     0     0     0
##  8     0     0     0     0     0     0     0      0     0     0     0     0
##  9     0     0     0     0     0     0     0      0     0     0     0     0
## 10     0     0     0     0     0     0     0      0     0     1     0     0
## # ... with 5,444 more rows, and 1,300 more variables: comp <dbl>,
## #   win <dbl>, cup <dbl>, final <dbl>, text <dbl>, receive <dbl>,
## #   question <dbl>, std <dbl>, txt <dbl>, rate <dbl>, apply <dbl>,
## #   dun <dbl>, nah <dbl>, usf <dbl>, freemsg <dbl>, hey <dbl>,
## #   darling <dbl>, word <dbl>, fun <dbl>, xxx <dbl>, send <dbl>,
## #   brother <dbl>, speak <dbl>, treat <dbl>, request <dbl>, set <dbl>,
## #   callertune <dbl>, callers <dbl>, press <dbl>, copy <dbl>,
## #   friends <dbl>, winner <dbl>, valued <dbl>, network <dbl>,
## #   customer <dbl>, selected <dbl>, prize <dbl>, reward <dbl>,
…
