看图写代码：瑞克与莫蒂剧集评分热力图
…
首先，还是先把需要用到的包载入：

library(tidyverse)

然后载入数据：

rm <- read_csv("rick & morty.csv") %>% 
  mutate_at(vars(Episode, Season), as.factor)

载入数据的时候，为方便后面的绘图，顺便把集数和季数两个变量改成了因子型。具体的数据是这样的：

rm

## # A tibble: 31 x 3
##    Episode Season Rating
##    <fct>   <fct>   <dbl>
##  1 1       1         8.1
##  2 2       1         8.7
##  3 3       1         8.4
##  4 4       1         8.6
##  5 5       1         8.9
##  6 6       1         9  
##  7 7       1         8.1
##  8 8       1         8.7
##  9 9       1         8.5
## 10 10      1         9.2
## # ... with 21 more rows
…
